module github.com/opstrace/opstrace/go

go 1.17

require (
	github.com/ClickHouse/clickhouse-go/v2 v2.0.14
	github.com/cespare/xxhash v1.1.0
	github.com/cespare/xxhash/v2 v2.1.2
	github.com/evanphx/json-patch/v5 v5.6.0
	github.com/go-logr/logr v1.2.3
	github.com/go-openapi/errors v0.20.1
	github.com/go-openapi/loads v0.21.0
	github.com/go-openapi/runtime v0.21.0
	github.com/go-openapi/spec v0.20.4
	github.com/go-openapi/strfmt v0.21.2
	github.com/go-openapi/swag v0.21.1
	github.com/go-openapi/validate v0.20.3
	github.com/gobs/pretty v0.0.0-20180724170744-09732c25a95b
	github.com/gogo/protobuf v1.3.2
	github.com/golang/snappy v0.0.4
	github.com/gorilla/mux v1.8.0
	github.com/hashicorp/go-cleanhttp v0.5.2
	github.com/jackc/pgx/v4 v4.16.0
	github.com/jessevdk/go-flags v1.5.0
	github.com/json-iterator/go v1.1.12
	github.com/lithammer/dedent v1.1.0
	github.com/open-telemetry/opentelemetry-collector-contrib/exporter/jaegerexporter v0.43.0
	github.com/open-telemetry/opentelemetry-collector-contrib/extension/pprofextension v0.43.0
	github.com/open-telemetry/opentelemetry-collector-contrib/processor/tailsamplingprocessor v0.43.0
	github.com/prometheus/client_golang v1.12.1
	github.com/prometheus/prometheus v1.8.2-0.20220315145411-881111fec433
	github.com/sirupsen/logrus v1.8.1
	github.com/stretchr/testify v1.7.1
	github.com/testcontainers/testcontainers-go v0.11.1
	github.com/xanzy/go-gitlab v0.65.0
	go.opentelemetry.io/collector v0.43.1
	golang.org/x/crypto v0.0.0-20220507011949-2cf3adece122 // indirect
	golang.org/x/net v0.0.0-20220225172249-27dd8689420f
	golang.org/x/oauth2 v0.0.0-20220411215720-9780585627b5 // indirect
	golang.org/x/sys v0.0.0-20220503163025-988cb79eb6c6 // indirect
	golang.org/x/time v0.0.0-20220411224347-583f2d630306 // indirect
	google.golang.org/protobuf v1.28.0 // indirect
	gotest.tools/v3 v3.0.3
	k8s.io/api v0.23.6
	k8s.io/apimachinery v0.23.6
	k8s.io/client-go v12.0.0+incompatible
	k8s.io/kubectl v0.23.6
	sigs.k8s.io/controller-runtime v0.11.2
)

require (
	contrib.go.opencensus.io/exporter/prometheus v0.4.0 // indirect
	github.com/Azure/go-ansiterm v0.0.0-20210617225240-d185dfc1b5a1 // indirect
	github.com/HdrHistogram/hdrhistogram-go v1.1.2 // indirect
	github.com/MakeNowJust/heredoc v0.0.0-20170808103936-bb23615498cd // indirect
	github.com/Microsoft/go-winio v0.5.1 // indirect
	github.com/Microsoft/hcsshim v0.9.2 // indirect
	github.com/PuerkitoBio/purell v1.1.1 // indirect
	github.com/PuerkitoBio/urlesc v0.0.0-20170810143723-de5bf2ad4578 // indirect
	github.com/apache/thrift v0.15.0 // indirect
	github.com/asaskevich/govalidator v0.0.0-20210307081110-f21760c49a8d // indirect
	github.com/beorn7/perks v1.0.1 // indirect
	github.com/cenkalti/backoff v2.2.1+incompatible // indirect
	github.com/cenkalti/backoff/v4 v4.1.2 // indirect
	github.com/chai2010/gettext-go v0.0.0-20160711120539-c6fed771bfd5 // indirect
	github.com/containerd/cgroups v1.0.3 // indirect
	github.com/containerd/containerd v1.6.1 // indirect
	github.com/davecgh/go-spew v1.1.1 // indirect
	github.com/docker/distribution v2.8.1+incompatible // indirect
	github.com/docker/docker v20.10.12+incompatible // indirect
	github.com/docker/go-connections v0.4.0 // indirect
	github.com/docker/go-units v0.4.0 // indirect
	github.com/evanphx/json-patch v4.12.0+incompatible // indirect
	github.com/exponent-io/jsonpath v0.0.0-20151013193312-d6023ce2651d // indirect
	github.com/fatih/camelcase v1.0.0 // indirect
	github.com/felixge/httpsnoop v1.0.2 // indirect
	github.com/go-errors/errors v1.0.1 // indirect
	github.com/go-kit/log v0.2.0 // indirect
	github.com/go-logfmt/logfmt v0.5.1 // indirect
	github.com/go-logr/stdr v1.2.2 // indirect
	github.com/go-ole/go-ole v1.2.6 // indirect
	github.com/go-openapi/analysis v0.20.1 // indirect
	github.com/go-openapi/jsonpointer v0.19.5 // indirect
	github.com/go-openapi/jsonreference v0.19.6 // indirect
	github.com/go-stack/stack v1.8.0 // indirect
	github.com/gofrs/uuid v4.2.0+incompatible // indirect
	github.com/gogo/googleapis v1.4.1 // indirect
	github.com/golang/groupcache v0.0.0-20210331224755-41bb18bfe9da // indirect
	github.com/golang/protobuf v1.5.2 // indirect
	github.com/google/btree v1.0.1 // indirect
	github.com/google/go-cmp v0.5.7 // indirect
	github.com/google/go-querystring v1.1.0 // indirect
	github.com/google/gofuzz v1.2.0 // indirect
	github.com/google/shlex v0.0.0-20191202100458-e7afc7fbc510 // indirect
	github.com/google/uuid v1.3.0 // indirect
	github.com/googleapis/gnostic v0.5.5 // indirect
	github.com/gregjones/httpcache v0.0.0-20180305231024-9cad4c3443a7 // indirect
	github.com/hashicorp/go-retryablehttp v0.6.8 // indirect
	github.com/imdario/mergo v0.3.12 // indirect
	github.com/inconshreveable/mousetrap v1.0.0 // indirect
	github.com/jackc/chunkreader/v2 v2.0.1 // indirect
	github.com/jackc/pgconn v1.12.0 // indirect
	github.com/jackc/pgio v1.0.0 // indirect
	github.com/jackc/pgpassfile v1.0.0 // indirect
	github.com/jackc/pgproto3/v2 v2.3.0 // indirect
	github.com/jackc/pgservicefile v0.0.0-20200714003250-2b9c44734f2b // indirect
	github.com/jackc/pgtype v1.11.0 // indirect
	github.com/jaegertracing/jaeger v1.30.0 // indirect
	github.com/joho/godotenv v1.4.0 // indirect
	github.com/josharian/intern v1.0.0 // indirect
	github.com/klauspost/compress v1.15.3 // indirect
	github.com/knadh/koanf v1.4.0 // indirect
	github.com/lib/pq v1.10.3 // indirect
	github.com/liggitt/tabwriter v0.0.0-20181228230101-89fcab3d43de // indirect
	github.com/lufia/plan9stats v0.0.0-20211012122336-39d0f177ccd0 // indirect
	github.com/magiconair/properties v1.8.5 // indirect
	github.com/mailru/easyjson v0.7.7 // indirect
	github.com/matttproud/golang_protobuf_extensions v1.0.2-0.20181231171920-c182affec369 // indirect
	github.com/mitchellh/copystructure v1.2.0 // indirect
	github.com/mitchellh/go-wordwrap v1.0.0 // indirect
	github.com/mitchellh/mapstructure v1.4.3 // indirect
	github.com/mitchellh/reflectwalk v1.0.2 // indirect
	github.com/moby/spdystream v0.2.0 // indirect
	github.com/moby/sys/mount v0.2.0 // indirect
	github.com/moby/sys/mountinfo v0.5.0 // indirect
	github.com/moby/term v0.0.0-20210619224110-3f7ff695adc6 // indirect
	github.com/modern-go/concurrent v0.0.0-20180306012644-bacd9c7ef1dd // indirect
	github.com/modern-go/reflect2 v1.0.2 // indirect
	github.com/monochromegane/go-gitignore v0.0.0-20200626010858-205db1a8cc00 // indirect
	github.com/morikuni/aec v1.0.0 // indirect
	github.com/mostynb/go-grpc-compression v1.1.16 // indirect
	github.com/oklog/ulid v1.3.1 // indirect
	github.com/open-telemetry/opentelemetry-collector-contrib/internal/coreinternal v0.43.0 // indirect
	github.com/open-telemetry/opentelemetry-collector-contrib/pkg/translator/jaeger v0.43.0 // indirect
	github.com/opencontainers/go-digest v1.0.0 // indirect
	github.com/opencontainers/image-spec v1.0.2 // indirect
	github.com/opencontainers/runc v1.1.0 // indirect
	github.com/opentracing/opentracing-go v1.2.0 // indirect
	github.com/paulmach/orb v0.6.0 // indirect
	github.com/peterbourgon/diskv v2.0.1+incompatible // indirect
	github.com/pierrec/lz4/v4 v4.1.14 // indirect
	github.com/pkg/errors v0.9.1 // indirect
	github.com/pmezard/go-difflib v1.0.0 // indirect
	github.com/power-devops/perfstat v0.0.0-20210106213030-5aafc221ea8c // indirect
	github.com/prometheus/client_model v0.2.0 // indirect
	github.com/prometheus/common v0.33.0 // indirect
	github.com/prometheus/procfs v0.7.3 // indirect
	github.com/prometheus/statsd_exporter v0.21.0 // indirect
	github.com/rs/cors v1.8.2 // indirect
	github.com/russross/blackfriday v1.5.2 // indirect
	github.com/shirou/gopsutil/v3 v3.21.12 // indirect
	github.com/shopspring/decimal v1.3.1 // indirect
	github.com/spf13/cast v1.4.1 // indirect
	github.com/spf13/cobra v1.3.0 // indirect
	github.com/spf13/pflag v1.0.5 // indirect
	github.com/tklauser/go-sysconf v0.3.10 // indirect
	github.com/tklauser/numcpus v0.4.0 // indirect
	github.com/uber/jaeger-client-go v2.30.0+incompatible // indirect
	github.com/uber/jaeger-lib v2.4.1+incompatible // indirect
	github.com/xlab/treeprint v1.1.0 // indirect
	github.com/yusufpapurcu/wmi v1.2.2 // indirect
	go.mongodb.org/mongo-driver v1.7.5 // indirect
	go.opencensus.io v0.23.0 // indirect
	go.opentelemetry.io/collector/model v0.43.1 // indirect
	go.opentelemetry.io/contrib/instrumentation/google.golang.org/grpc/otelgrpc v0.28.0 // indirect
	go.opentelemetry.io/contrib/instrumentation/net/http/otelhttp v0.29.0 // indirect
	go.opentelemetry.io/contrib/zpages v0.28.0 // indirect
	go.opentelemetry.io/otel v1.7.0 // indirect
	go.opentelemetry.io/otel/exporters/prometheus v0.26.0 // indirect
	go.opentelemetry.io/otel/internal/metric v0.27.0 // indirect
	go.opentelemetry.io/otel/metric v0.27.0 // indirect
	go.opentelemetry.io/otel/sdk v1.4.1 // indirect
	go.opentelemetry.io/otel/sdk/export/metric v0.26.0 // indirect
	go.opentelemetry.io/otel/sdk/metric v0.26.0 // indirect
	go.opentelemetry.io/otel/trace v1.7.0 // indirect
	go.starlark.net v0.0.0-20200306205701-8dd3e2ee1dd5 // indirect
	go.uber.org/atomic v1.9.0 // indirect
	go.uber.org/multierr v1.7.0 // indirect
	go.uber.org/zap v1.20.0 // indirect
	golang.org/x/term v0.0.0-20210927222741-03fcf44c2211 // indirect
	golang.org/x/text v0.3.7 // indirect
	google.golang.org/appengine v1.6.7 // indirect
	google.golang.org/genproto v0.0.0-20220222154240-daf995802d7b // indirect
	google.golang.org/grpc v1.44.0 // indirect
	gopkg.in/inf.v0 v0.9.1 // indirect
	gopkg.in/yaml.v2 v2.4.0 // indirect
	gopkg.in/yaml.v3 v3.0.0-20210107192922-496545a6307b // indirect
	k8s.io/cli-runtime v0.23.6 // indirect
	k8s.io/component-base v0.23.6 // indirect
	k8s.io/klog/v2 v2.40.1 // indirect
	k8s.io/kube-openapi v0.0.0-20211115234752-e816edb12b65 // indirect
	k8s.io/utils v0.0.0-20220210201930-3a6ce19ff2f9 // indirect
	sigs.k8s.io/json v0.0.0-20211020170558-c049b76a60c6 // indirect
	sigs.k8s.io/kustomize/api v0.10.1 // indirect
	sigs.k8s.io/kustomize/kyaml v0.13.0 // indirect
	sigs.k8s.io/structured-merge-diff/v4 v4.2.1 // indirect
	sigs.k8s.io/yaml v1.3.0 // indirect
)

replace k8s.io/client-go => k8s.io/client-go v0.23.1
